{
    "id":"92ed3c28-c271-4231-b257-70f45d741234",
    "schema":"https://metadata.datadrivendiscovery.org/schemas/v0/pipeline.json",
    "created":"2019-06-17T21:24:25.970586Z",
    "inputs":[
        {
            "name":"input dataset"
        }
    ],
    "outputs":[
        {
            "data":"steps.17.produce",
            "name":"predictions of input dataset"
        }
    ],
    "steps":[
        {
            "type":"PRIMITIVE",
            "primitive":{
                "id":"f31f8c1f-d1c5-43e5-a4b2-2ae4a761ef2e",
                "version":"0.2.0",
                "python_path":"d3m.primitives.data_transformation.denormalize.Common",
                "name":"Denormalize datasets"
            },
            "arguments":{
                "inputs":{
                    "type":"CONTAINER",
                    "data":"inputs.0"
                }
            },
            "outputs":[
                {
                    "id":"produce"
                }
            ],
            "hyperparams":{
                "starting_resource":{
                    "type":"VALUE",
                    "data":null
                },
                "recursive":{
                    "type":"VALUE",
                    "data":true
                },
                "many_to_many":{
                    "type":"VALUE",
                    "data":false
                },
                "discard_not_joined_tabular_resources":{
                    "type":"VALUE",
                    "data":false
                }
            }
        },
        {
            "type":"PRIMITIVE",
            "primitive":{
                "id":"fe0f1ac8-1d39-463a-b344-7bd498a31b91",
                "version":"0.1",
                "python_path":"d3m.primitives.data_augmentation.datamart_augmentation.Common",
                "name":"Perform dataset augmentation using Datamart"
            },
            "arguments":{
                "inputs":{
                    "type":"CONTAINER",
                    "data":"steps.0.produce"
                }
            },
            "outputs":[
                {
                    "id":"produce"
                }
            ],
            "hyperparams":{
                "search_result":{
                    "type":"VALUE",
                    "data":"{\"id\": \"\", \"score\": 0, \"metadata\": {\"search_result\": {}, \"query_json\": {}, \"search_type\": \"wikifier\"}, \"augmentation\": {\"properties\": \"join\"}, \"datamart_type\": \"isi\"}"
                },
                "system_identifier":{
                    "type":"VALUE",
                    "data":"ISI"
                },
                "augment_columns":{
                    "type":"VALUE",
                    "data":[]
                }
            }
        },
        {
            "type":"PRIMITIVE",
            "primitive":{
                "id":"fe0f1ac8-1d39-463a-b344-7bd498a31b91",
                "version":"0.1",
                "python_path":"d3m.primitives.data_augmentation.datamart_augmentation.Common",
                "name":"Perform dataset augmentation using Datamart"
            },
            "arguments":{
                "inputs":{
                    "type":"CONTAINER",
                    "data":"steps.1.produce"
                }
            },
            "outputs":[
                {
                    "id":"produce"
                }
            ],
            "hyperparams":{
                "search_result":{
                    "type":"VALUE",
                    "data":"{\"id\": \"wikidata search on ['P1082', 'P2046', 'P571'] with column FIPS_wikidata\", \"score\": 1, \"metadata\": {\"search_result\": {\"p_nodes_needed\": [\"P1082\", \"P2046\", \"P571\"], \"target_q_node_column_name\": \"FIPS_wikidata\"}, \"query_json\": null, \"search_type\": \"wikidata\"}, \"augmentation\": {\"properties\": \"join\", \"left_columns\": [6], \"right_columns\": [4]}, \"datamart_type\": \"isi\"}"
                },
                "system_identifier":{
                    "type":"VALUE",
                    "data":"ISI"
                },
                "augment_columns":{
                    "type":"VALUE",
                    "data":[]
                }
            }
        },
        {
            "type":"PRIMITIVE",
            "primitive":{
                "id":"fe0f1ac8-1d39-463a-b344-7bd498a31b91",
                "version":"0.1",
                "python_path":"d3m.primitives.data_augmentation.datamart_augmentation.Common",
                "name":"Perform dataset augmentation using Datamart"
            },
            "arguments":{
                "inputs":{
                    "type":"CONTAINER",
                    "data":"steps.2.produce"
                }
            },
            "outputs":[
                {
                    "id":"produce"
                }
            ],
            "hyperparams":{
                "search_result":{
                    "type":"VALUE",
                    "data":"{\"id\": \"wikidata search on ['P1082', 'P1449', 'P1451', 'P1549', 'P1705', 'P1813', 'P2044', 'P2046', 'P2927', 'P571', 'P6591'] with column State_wikidata\", \"score\": 1, \"metadata\": {\"search_result\": {\"p_nodes_needed\": [\"P1082\", \"P1449\", \"P1451\", \"P1549\", \"P1705\", \"P1813\", \"P2044\", \"P2046\", \"P2927\", \"P571\", \"P6591\"], \"target_q_node_column_name\": \"State_wikidata\"}, \"query_json\": null, \"search_type\": \"wikidata\"}, \"augmentation\": {\"properties\": \"join\", \"left_columns\": [7], \"right_columns\": [12]}, \"datamart_type\": \"isi\"}"
                },
                "system_identifier":{
                    "type":"VALUE",
                    "data":"ISI"
                },
                "augment_columns":{
                    "type":"VALUE",
                    "data":[]
                }
            }
        },
        {
            "type":"PRIMITIVE",
            "primitive":{
                "id":"fe0f1ac8-1d39-463a-b344-7bd498a31b91",
                "version":"0.1",
                "python_path":"d3m.primitives.data_augmentation.datamart_augmentation.Common",
                "name":"Perform dataset augmentation using Datamart"
            },
            "arguments":{
                "inputs":{
                    "type":"CONTAINER",
                    "data":"steps.3.produce"
                }
            },
            "outputs":[
                {
                    "id":"produce"
                }
            ],
            "hyperparams":{
                "search_result":{
                    "type":"VALUE",
                    "data":"{\"id\": \"D1000004\", \"score\": 0.22097086912079575, \"metadata\": {\"search_result\": {\"score\": {\"datatype\": \"http://www.w3.org/2001/XMLSchema#double\", \"type\": \"literal\", \"value\": \"0.22097086912079575\"}, \"rank\": {\"datatype\": \"http://www.w3.org/2001/XMLSchema#int\", \"type\": \"literal\", \"value\": \"4\"}, \"variable\": {\"type\": \"uri\", \"value\": \"http://www.wikidata.org/entity/statement/D1000004-c4f921f1-65a0-45e0-adb5-f72b3b5ebbc0\"}, \"dataset\": {\"type\": \"uri\", \"value\": \"http://www.wikidata.org/entity/D1000004\"}, \"url\": {\"type\": \"uri\", \"value\": \"https://raw.githubusercontent.com/usc-isi-i2/datamart-userend/master/example_datasets/educate.csv\"}, \"file_type\": {\"datatype\": \"http://www.w3.org/2001/XMLSchema#string\", \"type\": \"literal\", \"value\": \"csv\"}, \"title\": {\"xml:lang\": \"en\", \"type\": \"literal\", \"value\": \"educate.csv\"}, \"keywords\": {\"datatype\": \"http://www.w3.org/2001/XMLSchema#string\", \"type\": \"literal\", \"value\": \"FIPS Code State Area name 2003 Rural-urban Continuum Code 2003 Urban Influence Code 2013 Rural-urban Continuum Code 2013 Urban Influence Code Less than a high school diploma, 1970 High school diploma only, 1970 Some college (1-3 years), 1970 Four years of college or higher, 1970 Percent of adults with less than a high school diploma, 1970 Percent of adults with a high school diploma only, 1970 Percent of adults completing some college (1-3 years), 1970 Percent of adults completing four years of college or higher, 1970 Less than a high school diploma, 1980 High school diploma only, 1980 Some college (1-3 years), 1980 Four years of college or higher, 1980 Percent of adults with less than a high school diploma, 1980 Percent of adults with a high school diploma only, 1980 Percent of adults completing some college (1-3 years), 1980 Percent of adults completing four years of college or higher, 1980 Less than a high school diploma, 1990 High school diploma only, 1990 Some college or associate's degree, 1990 Bachelor's degree or higher, 1990 Percent of adults with less than a high school diploma, 1990 Percent of adults with a high school diploma only, 1990 Percent of adults completing some college or associate's degree, 1990 Percent of adults with a bachelor's degree or higher, 1990 Less than a high school diploma, 2000 High school diploma only, 2000 Some college or associate's degree, 2000 Bachelor's degree or higher, 2000 Percent of adults with less than a high school diploma, 2000 Percent of adults with a high school diploma only, 2000 Percent of adults completing some college or associate's degree, 2000 Percent of adults with a bachelor's degree or higher, 2000 Less than a high school diploma, 2013-17 High school diploma only, 2013-17 Some college or associate's degree, 2013-17 Bachelor's degree or higher, 2013-17 Percent of adults with less than a high school diploma, 2013-17 Percent of adults with a high school diploma only, 2013-17 Percent of adults completing some college or associate's degree, 2013-17 Percent of adults with a bachelor's degree or higher, 2013-17 FIPS Code_wikidata State_wikidata\"}, \"extra_information\": {\"datatype\": \"http://www.w3.org/2001/XMLSchema#string\", \"type\": \"literal\", \"value\": \"{'column_meta_0': {'semantic_type': ['https://metadata.datadrivendiscovery.org/types/Attribute', 'http://schema.org/Integer'], 'name': 'FIPS Code'}, 'column_meta_1': {'semantic_type': ['https://metadata.datadrivendiscovery.org/types/Attribute', 'http://schema.org/Text'], 'name': 'State'}, 'column_meta_2': {'semantic_type': ['https://metadata.datadrivendiscovery.org/types/Attribute', 'http://schema.org/Text'], 'name': 'Area name'}, 'column_meta_3': {'semantic_type': ['https://metadata.datadrivendiscovery.org/types/Attribute', 'http://schema.org/Float'], 'name': '2003 Rural-urban Continuum Code'}, 'column_meta_4': {'semantic_type': ['https://metadata.datadrivendiscovery.org/types/Attribute', 'http://schema.org/Float'], 'name': '2003 Urban Influence Code'}, 'column_meta_5': {'semantic_type': ['https://metadata.datadrivendiscovery.org/types/Attribute', 'http://schema.org/Float'], 'name': '2013 Rural-urban Continuum Code'}, 'column_meta_6': {'semantic_type': ['https://metadata.datadrivendiscovery.org/types/Attribute', 'http://schema.org/Float'], 'name': '2013 Urban Influence Code'}, 'column_meta_7': {'semantic_type': ['https://metadata.datadrivendiscovery.org/types/Attribute', 'http://schema.org/Float'], 'name': 'Less than a high school diploma, 1970'}, 'column_meta_8': {'semantic_type': ['https://metadata.datadrivendiscovery.org/types/Attribute', 'http://schema.org/Float'], 'name': 'High school diploma only, 1970'}, 'column_meta_9': {'semantic_type': ['https://metadata.datadrivendiscovery.org/types/Attribute', 'http://schema.org/Float'], 'name': 'Some college (1-3 years), 1970'}, 'column_meta_10': {'semantic_type': ['https://metadata.datadrivendiscovery.org/types/Attribute', 'http://schema.org/Float'], 'name': 'Four years of college or higher, 1970'}, 'column_meta_11': {'semantic_type': ['https://metadata.datadrivendiscovery.org/types/Attribute', 'http://schema.org/Float'], 'name': 'Percent of adults with less than a high school diploma, 1970'}, 'column_meta_12': {'semantic_type': ['https://metadata.datadrivendiscovery.org/types/Attribute', 'http://schema.org/Float'], 'name': 'Percent of adults with a high school diploma only, 1970'}, 'column_meta_13': {'semantic_type': ['https://metadata.datadrivendiscovery.org/types/Attribute', 'http://schema.org/Float'], 'name': 'Percent of adults completing some college (1-3 years), 1970'}, 'column_meta_14': {'semantic_type': ['https://metadata.datadrivendiscovery.org/types/Attribute', 'http://schema.org/Float'], 'name': 'Percent of adults completing four years of college or higher, 1970'}, 'column_meta_15': {'semantic_type': ['https://metadata.datadrivendiscovery.org/types/Attribute', 'http://schema.org/Float'], 'name': 'Less than a high school diploma, 1980'}, 'column_meta_16': {'semantic_type': ['https://metadata.datadrivendiscovery.org/types/Attribute', 'http://schema.org/Float'], 'name': 'High school diploma only, 1980'}, 'column_meta_17': {'semantic_type': ['https://metadata.datadrivendiscovery.org/types/Attribute', 'http://schema.org/Float'], 'name': 'Some college (1-3 years), 1980'}, 'column_meta_18': {'semantic_type': ['https://metadata.datadrivendiscovery.org/types/Attribute', 'http://schema.org/Float'], 'name': 'Four years of college or higher, 1980'}, 'column_meta_19': {'semantic_type': ['https://metadata.datadrivendiscovery.org/types/Attribute', 'http://schema.org/Float'], 'name': 'Percent of adults with less than a high school diploma, 1980'}, 'column_meta_20': {'semantic_type': ['https://metadata.datadrivendiscovery.org/types/Attribute', 'http://schema.org/Float'], 'name': 'Percent of adults with a high school diploma only, 1980'}, 'column_meta_21': {'semantic_type': ['https://metadata.datadrivendiscovery.org/types/Attribute', 'http://schema.org/Float'], 'name': 'Percent of adults completing some college (1-3 years), 1980'}, 'column_meta_22': {'semantic_type': ['https://metadata.datadrivendiscovery.org/types/Attribute', 'http://schema.org/Float'], 'name': 'Percent of adults completing four years of college or higher, 1980'}, 'column_meta_23': {'semantic_type': ['https://metadata.datadrivendiscovery.org/types/Attribute', 'http://schema.org/Float'], 'name': 'Less than a high school diploma, 1990'}, 'column_meta_24': {'semantic_type': ['https://metadata.datadrivendiscovery.org/types/Attribute', 'http://schema.org/Float'], 'name': 'High school diploma only, 1990'}, 'column_meta_25': {'semantic_type': ['https://metadata.datadrivendiscovery.org/types/Attribute', 'http://schema.org/Float'], 'name': \\\"Some college or associate's degree, 1990\\\"}, 'column_meta_26': {'semantic_type': ['https://metadata.datadrivendiscovery.org/types/Attribute', 'http://schema.org/Float'], 'name': \\\"Bachelor's degree or higher, 1990\\\"}, 'column_meta_27': {'semantic_type': ['https://metadata.datadrivendiscovery.org/types/Attribute', 'http://schema.org/Float'], 'name': 'Percent of adults with less than a high school diploma, 1990'}, 'column_meta_28': {'semantic_type': ['https://metadata.datadrivendiscovery.org/types/Attribute', 'http://schema.org/Float'], 'name': 'Percent of adults with a high school diploma only, 1990'}, 'column_meta_29': {'semantic_type': ['https://metadata.datadrivendiscovery.org/types/Attribute', 'http://schema.org/Float'], 'name': \\\"Percent of adults completing some college or associate's degree, 1990\\\"}, 'column_meta_30': {'semantic_type': ['https://metadata.datadrivendiscovery.org/types/Attribute', 'http://schema.org/Float'], 'name': \\\"Percent of adults with a bachelor's degree or higher, 1990\\\"}, 'column_meta_31': {'semantic_type': ['https://metadata.datadrivendiscovery.org/types/Attribute', 'http://schema.org/Float'], 'name': 'Less than a high school diploma, 2000'}, 'column_meta_32': {'semantic_type': ['https://metadata.datadrivendiscovery.org/types/Attribute', 'http://schema.org/Float'], 'name': 'High school diploma only, 2000'}, 'column_meta_33': {'semantic_type': ['https://metadata.datadrivendiscovery.org/types/Attribute', 'http://schema.org/Float'], 'name': \\\"Some college or associate's degree, 2000\\\"}, 'column_meta_34': {'semantic_type': ['https://metadata.datadrivendiscovery.org/types/Attribute', 'http://schema.org/Float'], 'name': \\\"Bachelor's degree or higher, 2000\\\"}, 'column_meta_35': {'semantic_type': ['https://metadata.datadrivendiscovery.org/types/Attribute', 'http://schema.org/Float'], 'name': 'Percent of adults with less than a high school diploma, 2000'}, 'column_meta_36': {'semantic_type': ['https://metadata.datadrivendiscovery.org/types/Attribute', 'http://schema.org/Float'], 'name': 'Percent of adults with a high school diploma only, 2000'}, 'column_meta_37': {'semantic_type': ['https://metadata.datadrivendiscovery.org/types/Attribute', 'http://schema.org/Float'], 'name': \\\"Percent of adults completing some college or associate's degree, 2000\\\"}, 'column_meta_38': {'semantic_type': ['https://metadata.datadrivendiscovery.org/types/Attribute', 'http://schema.org/Float'], 'name': \\\"Percent of adults with a bachelor's degree or higher, 2000\\\"}, 'column_meta_39': {'semantic_type': ['https://metadata.datadrivendiscovery.org/types/Attribute', 'http://schema.org/Float'], 'name': 'Less than a high school diploma, 2013-17'}, 'column_meta_40': {'semantic_type': ['https://metadata.datadrivendiscovery.org/types/Attribute', 'http://schema.org/Float'], 'name': 'High school diploma only, 2013-17'}, 'column_meta_41': {'semantic_type': ['https://metadata.datadrivendiscovery.org/types/Attribute', 'http://schema.org/Float'], 'name': \\\"Some college or associate's degree, 2013-17\\\"}, 'column_meta_42': {'semantic_type': ['https://metadata.datadrivendiscovery.org/types/Attribute', 'http://schema.org/Float'], 'name': \\\"Bachelor's degree or higher, 2013-17\\\"}, 'column_meta_43': {'semantic_type': ['https://metadata.datadrivendiscovery.org/types/Attribute', 'http://schema.org/Float'], 'name': 'Percent of adults with less than a high school diploma, 2013-17'}, 'column_meta_44': {'semantic_type': ['https://metadata.datadrivendiscovery.org/types/Attribute', 'http://schema.org/Float'], 'name': 'Percent of adults with a high school diploma only, 2013-17'}, 'column_meta_45': {'semantic_type': ['https://metadata.datadrivendiscovery.org/types/Attribute', 'http://schema.org/Float'], 'name': \\\"Percent of adults completing some college or associate's degree, 2013-17\\\"}, 'column_meta_46': {'semantic_type': ['https://metadata.datadrivendiscovery.org/types/Attribute', 'http://schema.org/Float'], 'name': \\\"Percent of adults with a bachelor's degree or higher, 2013-17\\\"}, 'column_meta_47': {'semantic_type': ['https://metadata.datadrivendiscovery.org/types/Attribute', 'http://schema.org/Text'], 'name': 'FIPS Code_wikidata'}, 'column_meta_48': {'semantic_type': ['https://metadata.datadrivendiscovery.org/types/Attribute', 'http://schema.org/Text'], 'name': 'State_wikidata'}, 'data_metadata': {'shape_0': 3283, 'shape_1': 49}}\"}, \"datasetLabel\": {\"xml:lang\": \"en\", \"type\": \"literal\", \"value\": \"D1000004\"}, \"variableName\": {\"datatype\": \"http://www.w3.org/2001/XMLSchema#string\", \"type\": \"literal\", \"value\": \"FIPS Code_wikidata\"}}, \"query_json\": {\"keywords\": [], \"variables\": {\"FIPS_wikidata\": \"Q240621 Q502880 Q495171 Q486099 Q127978 Q486313 Q484330 Q504441 Q1139827 Q485474 Q505987 Q61381 Q504422 Q514093 Q494998 Q114479 Q279452 Q506363 Q109308 Q484124 Q495414 Q56153 Q54441 Q285625 Q54066 Q485030 Q370654 Q496003 Q156163 Q488805 Q500654 Q490272 Q490266 Q491991 Q26526 Q486229 Q61135 Q109289 Q825807 Q495851 Q111400 Q484513 Q400753 Q48863 Q108428 Q501036 Q474999 Q500751 Q484457 Q490369 Q495105 Q513833 Q490727 Q485804 Q346959 Q486139 Q504350 Q487322 Q54251 Q512259 Q375608 Q109279 Q54238 Q496664 Q247715 Q376990 Q485038 Q501815 Q111913 Q484367 Q502592 Q372796 Q137562 Q510885 Q486838 Q491988 Q110904 Q485628 Q486060 Q110561 Q487254 Q2613391 Q495031 Q497652 Q61012 Q485364 Q490378 Q498372 Q112499 Q111729 Q496583 Q510934 Q506291 Q486435 Q494919 Q28316 Q485001 Q505276 Q2613601 Q113783 Q484470 Q376947 Q108612 Q49014 Q586070 Q486480 Q486210 Q28285 Q489553 Q505305 Q484287 Q127184 Q281681 Q505638 Q489222 Q504360 Q111391 Q490835 Q504355 Q389365 Q495570 Q29124 Q506351 Q495195 Q376102 Q484159 Q494254 Q271915 Q61084 Q497642 Q156628 Q54440 Q486389 Q494129 Q489751 Q505387 Q486614 Q485558 Q483990 Q408744 Q490869 Q508618 Q494751 Q501848 Q506569 Q495022 Q26631 Q374404 Q54086 Q486325 Q484771 Q497707 Q426746 Q494822 Q509895 Q110412 Q504312 Q514008 Q489468 Q295787 Q374527 Q484133 Q484239 Q504863 Q27051 Q502397 Q387978 Q110336 Q54076 Q508288 Q340605 Q486095 Q336322 Q112768 Q926589 Q503870 Q491173 Q505299 Q489880 Q375002 Q502351 Q111380 Q48834 Q490757 Q54082 Q280838 Q484381 Q312744 Q490287 Q502285 Q108418 Q502431 Q113117 Q500663 Q497634 Q494536 Q61526 Q107977 Q492053 Q507353\"}}, \"search_type\": \"general\"}, \"augmentation\": {\"properties\": \"join\", \"right_columns\": [47], \"left_columns\": [6]}, \"datamart_type\": \"isi\"}"
                },
                "system_identifier":{
                    "type":"VALUE",
                    "data":"ISI"
                },
                "augment_columns":{
                    "type":"VALUE",
                    "data":[]
                }
            }
        },
        {
            "type":"PRIMITIVE",
            "primitive":{
                "id":"4b42ce1e-9b98-4a25-b68e-fad13311eb65",
                "version":"0.3.0",
                "python_path":"d3m.primitives.data_transformation.dataset_to_dataframe.Common",
                "name":"Extract a DataFrame from a Dataset"
            },
            "arguments":{
                "inputs":{
                    "type":"CONTAINER",
                    "data":"steps.4.produce"
                }
            },
            "outputs":[
                {
                    "id":"produce"
                }
            ]
        },
        {
            "type":"PRIMITIVE",
            "primitive":{
                "id":"4503a4c6-42f7-45a1-a1d4-ed69699cf5e1",
                "version":"0.3.0",
                "python_path":"d3m.primitives.data_transformation.extract_columns_by_semantic_types.DataFrameCommon",
                "name":"Extracts columns by semantic type"
            },
            "arguments":{
                "inputs":{
                    "type":"CONTAINER",
                    "data":"steps.5.produce"
                }
            },
            "outputs":[
                {
                    "id":"produce"
                }
            ],
            "hyperparams":{
                "semantic_types":{
                    "type":"VALUE",
                    "data":[
                        "https://metadata.datadrivendiscovery.org/types/PrimaryKey",
                        "https://metadata.datadrivendiscovery.org/types/Attribute"
                    ]
                }
            }
        },
        {
            "type":"PRIMITIVE",
            "primitive":{
                "id":"b2612849-39e4-33ce-bfda-24f3e2cb1e93",
                "version":"1.5.3",
                "python_path":"d3m.primitives.schema_discovery.profiler.DSBOX",
                "name":"DSBox Profiler"
            },
            "arguments":{
                "inputs":{
                    "type":"CONTAINER",
                    "data":"steps.6.produce"
                }
            },
            "outputs":[
                {
                    "id":"produce"
                }
            ]
        },
        {
            "type":"PRIMITIVE",
            "primitive":{
                "id":"dsbox-cleaning-featurizer",
                "version":"1.5.3",
                "python_path":"d3m.primitives.data_cleaning.cleaning_featurizer.DSBOX",
                "name":"DSBox Cleaning Featurizer"
            },
            "arguments":{
                "inputs":{
                    "type":"CONTAINER",
                    "data":"steps.7.produce"
                }
            },
            "outputs":[
                {
                    "id":"produce"
                }
            ]
        },
        {
            "type":"PRIMITIVE",
            "primitive":{
                "id":"18f0bb42-6350-3753-8f2d-d1c3da70f279",
                "version":"1.5.3",
                "python_path":"d3m.primitives.data_preprocessing.encoder.DSBOX",
                "name":"ISI DSBox Data Encoder"
            },
            "arguments":{
                "inputs":{
                    "type":"CONTAINER",
                    "data":"steps.8.produce"
                }
            },
            "outputs":[
                {
                    "id":"produce"
                }
            ]
        },
        {
            "type":"PRIMITIVE",
            "primitive":{
                "id":"0c64ffd6-cb9e-49f0-b7cb-abd70a5a8261",
                "version":"1.0.0",
                "python_path":"d3m.primitives.feature_construction.corex_text.DSBOX",
                "name":"CorexText"
            },
            "arguments":{
                "inputs":{
                    "type":"CONTAINER",
                    "data":"steps.9.produce"
                }
            },
            "outputs":[
                {
                    "id":"produce"
                }
            ]
        },
        {
            "type":"PRIMITIVE",
            "primitive":{
                "id":"7ddf2fd8-2f7f-4e53-96a7-0d9f5aeecf93",
                "version":"1.5.3",
                "python_path":"d3m.primitives.data_transformation.to_numeric.DSBOX",
                "name":"ISI DSBox To Numeric DataFrame"
            },
            "arguments":{
                "inputs":{
                    "type":"CONTAINER",
                    "data":"steps.10.produce"
                }
            },
            "outputs":[
                {
                    "id":"produce"
                }
            ]
        },
        {
            "type":"PRIMITIVE",
            "primitive":{
                "id":"7894b699-61e9-3a50-ac9f-9bc510466667",
                "version":"1.5.3",
                "python_path":"d3m.primitives.data_preprocessing.mean_imputation.DSBOX",
                "name":"DSBox Mean Imputer"
            },
            "arguments":{
                "inputs":{
                    "type":"CONTAINER",
                    "data":"steps.11.produce"
                }
            },
            "outputs":[
                {
                    "id":"produce"
                }
            ]
        },
        {
            "type":"PRIMITIVE",
            "primitive":{
                "id":"dsbox-featurizer-do-nothing",
                "version":"1.5.3",
                "python_path":"d3m.primitives.data_preprocessing.do_nothing.DSBOX",
                "name":"DSBox do-nothing primitive"
            },
            "arguments":{
                "inputs":{
                    "type":"CONTAINER",
                    "data":"steps.12.produce"
                }
            },
            "outputs":[
                {
                    "id":"produce"
                }
            ]
        },
        {
            "type":"PRIMITIVE",
            "primitive":{
                "id":"2fb28cd1-5de6-3663-a2dc-09c786fba7f4",
                "version":"2019.6.7",
                "python_path":"d3m.primitives.feature_extraction.pca.SKlearn",
                "name":"sklearn.decomposition.pca.PCA"
            },
            "arguments":{
                "inputs":{
                    "type":"CONTAINER",
                    "data":"steps.13.produce"
                }
            },
            "outputs":[
                {
                    "id":"produce"
                }
            ],
            "hyperparams":{
                "use_semantic_types":{
                    "type":"VALUE",
                    "data":true
                },
                "add_index_columns":{
                    "type":"VALUE",
                    "data":true
                },
                "return_result":{
                    "type":"VALUE",
                    "data":"new"
                },
                "n_components":{
                    "type":"VALUE",
                    "data":{
                        "case":"int",
                        "value":15
                    }
                }
            }
        },
        {
            "type":"PRIMITIVE",
            "primitive":{
                "id":"4503a4c6-42f7-45a1-a1d4-ed69699cf5e1",
                "version":"0.3.0",
                "python_path":"d3m.primitives.data_transformation.extract_columns_by_semantic_types.DataFrameCommon",
                "name":"Extracts columns by semantic type"
            },
            "arguments":{
                "inputs":{
                    "type":"CONTAINER",
                    "data":"steps.5.produce"
                }
            },
            "outputs":[
                {
                    "id":"produce"
                }
            ],
            "hyperparams":{
                "semantic_types":{
                    "type":"VALUE",
                    "data":[
                        "https://metadata.datadrivendiscovery.org/types/TrueTarget"
                    ]
                }
            }
        },
        {
            "type":"PRIMITIVE",
            "primitive":{
                "id":"7ddf2fd8-2f7f-4e53-96a7-0d9f5aeecf93",
                "version":"1.5.3",
                "python_path":"d3m.primitives.data_transformation.to_numeric.DSBOX",
                "name":"ISI DSBox To Numeric DataFrame"
            },
            "arguments":{
                "inputs":{
                    "type":"CONTAINER",
                    "data":"steps.15.produce"
                }
            },
            "outputs":[
                {
                    "id":"produce"
                }
            ],
            "hyperparams":{
                "drop_non_numeric_columns":{
                    "type":"VALUE",
                    "data":false
                }
            }
        },
        {
            "type":"PRIMITIVE",
            "primitive":{
                "id":"35321059-2a1a-31fd-9509-5494efc751c7",
                "version":"2019.6.7",
                "python_path":"d3m.primitives.regression.extra_trees.SKlearn",
                "name":"sklearn.ensemble.forest.ExtraTreesRegressor"
            },
            "arguments":{
                "inputs":{
                    "type":"CONTAINER",
                    "data":"steps.14.produce"
                },
                "outputs":{
                    "type":"CONTAINER",
                    "data":"steps.16.produce"
                }
            },
            "outputs":[
                {
                    "id":"produce"
                }
            ],
            "hyperparams":{
                "bootstrap":{
                    "type":"VALUE",
                    "data":true
                },
                "max_depth":{
                    "type":"VALUE",
                    "data":{
                        "case":"int",
                        "value":30
                    }
                },
                "min_samples_leaf":{
                    "type":"VALUE",
                    "data":{
                        "case":"absolute",
                        "value":1
                    }
                },
                "min_samples_split":{
                    "type":"VALUE",
                    "data":{
                        "case":"int",
                        "value":10
                    }
                },
                "max_features":{
                    "type":"VALUE",
                    "data":{
                        "case":"calculated",
                        "value":"sqrt"
                    }
                },
                "n_estimators":{
                    "type":"VALUE",
                    "data":100
                },
                "add_index_columns":{
                    "type":"VALUE",
                    "data":true
                },
                "use_semantic_types":{
                    "type":"VALUE",
                    "data":true
                }
            }
        }
    ],
    "name":"extra_trees_regression_template:5251238000",
    "description":"",
    "pipeline_rank":3223.0856802693147,
    "metric":"meanAbsoluteError",
    "metric_value":3223.0856802693147,
    "template_name":"extra_trees_regression_template",
    "template_task":"REGRESSION",
    "template_subtask":"{'MULTIVARIATE', 'UNIVARIATE', 'NONE'}",
    "problem_taskType":"regression",
    "problem_taskSubType":"NONE"
}
