{
  "id": "7f6ff004-06d1-4848-a123-0da69cfe2828",
  "schema": "https://metadata.datadrivendiscovery.org/schemas/v0/pipeline.json",
  "created": "2019-05-16T21:55:54.382689Z",
  "inputs": [
    {
      "name": "input dataset"
    }
  ],
  "outputs": [
    {
      "data": "steps.7.produce",
      "name": "predictions of input dataset"
    }
  ],
  "steps": [
    {
      "type": "PRIMITIVE",
      "primitive": {
        "id": "f31f8c1f-d1c5-43e5-a4b2-2ae4a761ef2e",
        "version": "0.2.0",
        "python_path": "d3m.primitives.data_transformation.denormalize.Common",
        "name": "Denormalize datasets",
        "digest": "afca078f05899b9f329e1b8cc0973848e39e83a7521d2cade81c1fbad5cf8139"
      },
      "arguments": {
        "inputs": {
          "type": "CONTAINER",
          "data": "inputs.0"
        }
      },
      "outputs": [
        {
          "id": "produce"
        }
      ],
      "hyperparams": {
        "starting_resource": {
          "type": "VALUE",
          "data": null
        },
        "recursive": {
          "type": "VALUE",
          "data": true
        },
        "many_to_many": {
          "type": "VALUE",
          "data": false
        },
        "discard_not_joined_tabular_resources": {
          "type": "VALUE",
          "data": false
        }
      }
    },
    {
      "type": "PRIMITIVE",
      "primitive": {
        "id": "4b42ce1e-9b98-4a25-b68e-fad13311eb65",
        "version": "0.3.0",
        "python_path": "d3m.primitives.data_transformation.dataset_to_dataframe.Common",
        "name": "Extract a DataFrame from a Dataset",
        "digest": "e557fc176af67913ed241dbe793cf986439157cfe9c4a12f1aafcba3c07b8b6f"
      },
      "arguments": {
        "inputs": {
          "type": "CONTAINER",
          "data": "steps.0.produce"
        }
      },
      "outputs": [
        {
          "id": "produce"
        }
      ]
    },
    {
      "type": "PRIMITIVE",
      "primitive": {
        "id": "4503a4c6-42f7-45a1-a1d4-ed69699cf5e1",
        "version": "0.2.0",
        "python_path": "d3m.primitives.data_transformation.extract_columns_by_semantic_types.DataFrameCommon",
        "name": "Extracts columns by semantic type",
        "digest": "d4fa27a3e215b89d2231d344ec0202e1b8e41ad322deb79c68fd6ca673eae3f7"
      },
      "arguments": {
        "inputs": {
          "type": "CONTAINER",
          "data": "steps.1.produce"
        }
      },
      "outputs": [
        {
          "id": "produce"
        }
      ],
      "hyperparams": {
        "semantic_types": {
          "type": "VALUE",
          "data": [
            "https://metadata.datadrivendiscovery.org/types/TrueTarget"
          ]
        }
      }
    },
    {
      "type": "PRIMITIVE",
      "primitive": {
        "id": "7ddf2fd8-2f7f-4e53-96a7-0d9f5aeecf93",
        "version": "1.5.3",
        "python_path": "d3m.primitives.data_transformation.to_numeric.DSBOX",
        "name": "ISI DSBox To Numeric DataFrame",
        "digest": "2756820b9b3fc0d406b7cd832f662a69874acfbbc934e4f99a5105a5b257a9c5"
      },
      "arguments": {
        "inputs": {
          "type": "CONTAINER",
          "data": "steps.2.produce"
        }
      },
      "outputs": [
        {
          "id": "produce"
        }
      ],
      "hyperparams": {
        "drop_non_numeric_columns": {
          "type": "VALUE",
          "data": false
        }
      }
    },
    {
      "type": "PRIMITIVE",
      "primitive": {
        "id": "dsbox-featurizer-image-dataframe-to-tensor",
        "version": "1.5.3",
        "python_path": "d3m.primitives.data_preprocessing.dataframe_to_tensor.DSBOX",
        "name": "DSBox Image Featurizer dataframe to tensor transformer",
        "digest": "48967f5b86431b07cf6309657d567d6c1165ac00962725f4f8f84f97a783e7f8"
      },
      "arguments": {
        "inputs": {
          "type": "CONTAINER",
          "data": "steps.1.produce"
        }
      },
      "outputs": [
        {
          "id": "produce"
        }
      ]
    },
    {
      "type": "PRIMITIVE",
      "primitive": {
        "id": "dsbox-featurizer-image-vgg16",
        "version": "1.5.3",
        "python_path": "d3m.primitives.feature_extraction.vgg16_image_feature.DSBOX",
        "name": "DSBox Image Featurizer VGG16",
        "digest": "307abe6e625f4dc7c9b6ad9158bfcb6384b7e8c3e3d953f967def37fe7373b18"
      },
      "arguments": {
        "inputs": {
          "type": "CONTAINER",
          "data": "steps.4.produce"
        }
      },
      "outputs": [
        {
          "id": "produce"
        }
      ],
      "hyperparams": {
        "generate_metadata": {
          "type": "VALUE",
          "data": true
        }
      }
    },
    {
      "type": "PRIMITIVE",
      "primitive": {
        "id": "2fb28cd1-5de6-3663-a2dc-09c786fba7f4",
        "version": "2019.6.7",
        "python_path": "d3m.primitives.feature_extraction.pca.SKlearn",
        "name": "sklearn.decomposition.pca.PCA",
        "digest": "d08a000614644c40921102176f8a897bfdadef3410947ea4d7183abf41941f85"
      },
      "arguments": {
        "inputs": {
          "type": "CONTAINER",
          "data": "steps.5.produce"
        }
      },
      "outputs": [
        {
          "id": "produce"
        }
      ],
      "hyperparams": {
        "add_index_columns": {
          "type": "VALUE",
          "data": true
        },
        "use_semantic_types": {
          "type": "VALUE",
          "data": true
        }
      }
    },
    {
      "type": "PRIMITIVE",
      "primitive": {
        "id": "f0fd7a62-09b5-3abc-93bb-f5f999f7cc80",
        "version": "2019.6.7",
        "python_path": "d3m.primitives.regression.random_forest.SKlearn",
        "name": "sklearn.ensemble.forest.RandomForestRegressor",
        "digest": "931d0bf8a0939eec717a075336b4469bbab4a4419656f5e4cc21d328add25f72"
      },
      "arguments": {
        "inputs": {
          "type": "CONTAINER",
          "data": "steps.6.produce"
        },
        "outputs": {
          "type": "CONTAINER",
          "data": "steps.3.produce"
        }
      },
      "outputs": [
        {
          "id": "produce"
        }
      ],
      "hyperparams": {
        "add_index_columns": {
          "type": "VALUE",
          "data": true
        }
      }
    }
  ],
  "name": "TA1VggImageProcessingRegressionTemplate:140511768434512",
  "description": "",
  "digest": "f0cfb124630bfdf11b626283a747d8c1e0f36ba37bc25093e45fc5f7dd6e7e4d"
}
