{
    "id": "d2389635-dcf4-407a-b91b-27ea92aa687e",
    "schema": "https://metadata.datadrivendiscovery.org/schemas/v0/pipeline.json",
    "created": "2019-06-17T20:58:02.486398Z",
    "inputs": [
        {
            "name": "inputs"
        }
    ],
    "outputs": [
        {
            "data": "steps.1.produce",
            "name": "output"
        }
    ],
    "steps": [
        {
            "type": "PRIMITIVE",
            "primitive": {
                "id": "79012210-2463-4f94-9da6-11bdc5a7e6c4",
                "version": "0.1.0",
                "python_path": "d3m.primitives.data_transformation.load_single_graph.DistilSingleGraphLoader",
                "name": "Load single graph and dataframe into a parseable object",
                "digest": "9893cb98b9eef3357dbd2caa82197afecab77d9acf135712c74b4ce4d57976b3"
            },
            "arguments": {
                "inputs": {
                    "type": "CONTAINER",
                    "data": "inputs.0"
                }
            },
            "outputs": [
                {
                    "id": "produce"
                },
                {
                    "id": "produce_target"
                }
            ]
        },
        {
            "type": "PRIMITIVE",
            "primitive": {
                "id": "064cec55-39dd-45b7-a663-50d3e17e0c42",
                "version": "0.1.0",
                "python_path": "d3m.primitives.data_transformation.community_detection.DistilCommunityDetection",
                "name": "CommunityDetection",
                "digest": "5b6dee41c2d70ec17ab6a7c1d476176cd29c7cb0d977507ecbc7980da55b6ee8"
            },
            "arguments": {
                "inputs": {
                    "type": "CONTAINER",
                    "data": "steps.0.produce"
                },
                "outputs": {
                    "type": "CONTAINER",
                    "data": "steps.0.produce_target"
                }
            },
            "outputs": [
                {
                    "id": "produce"
                }
            ],
            "hyperparams": {
                "metric": {
                    "type": "VALUE",
                    "data": "normalizedMutualInformation"
                }
            }
        }
    ],
    "digest": "9276ccffebfd8548119fb09c6f744afba72b83a6609d744bb2deecb831cdb77b"
}
